apps/waveform/test_data/3bit.vcd
$date
	Thu Feb  6 14:02:36 2025
$end
$version
	Icarus Verilog
$end
$timescale
	10ps
$end
$scope module tb $end
$scope module DUT $end
$var wire 8 ! a [7:0] $end
$var wire 8 " b [7:0] $end
$var wire 8 # ci [7:0] $end
$var wire 9 $ s [8:0] $end
$var wire 9 % co [8:0] $end
$var parameter 32 & INSIZE $end
$scope begin genblk1[0] $end
$var parameter 2 ' idx $end
$scope module fa $end
$var wire 1 ( A $end
$var wire 1 ) B $end
$var wire 1 * C $end
$var wire 1 + I0_out $end
$var wire 1 , I1_out $end
$var wire 1 - I3_out $end
$var wire 1 . I5_out $end
$var wire 1 / YC $end
$var wire 1 0 YS $end
$var real 1 1 \tphhl$A$YC $end
$var real 1 2 \tphhl$B$YC $end
$var real 1 3 \tphhl$C$YC $end
$var real 1 4 \tplhl$A$YS $end
$var real 1 5 \tplhl$B$YS $end
$var real 1 6 \tplhl$C$YS $end
$var real 1 7 \tpllh$A$YC $end
$var real 1 8 \tpllh$A$YS $end
$var real 1 9 \tpllh$B$YC $end
$var real 1 : \tpllh$B$YS $end
$var real 1 ; \tpllh$C$YC $end
$var real 1 < \tpllh$C$YS $end
$upscope $end
$upscope $end
$scope begin genblk1[1] $end
$var parameter 2 = idx $end
$scope module fa $end
$var wire 1 > A $end
$var wire 1 ? B $end
$var wire 1 @ C $end
$var wire 1 A I0_out $end
$var wire 1 B I1_out $end
$var wire 1 C I3_out $end
$var wire 1 D I5_out $end
$var wire 1 E YC $end
$var wire 1 F YS $end
$var real 1 G \tphhl$A$YC $end
$var real 1 H \tphhl$B$YC $end
$var real 1 I \tphhl$C$YC $end
$var real 1 J \tplhl$A$YS $end
$var real 1 K \tplhl$B$YS $end
$var real 1 L \tplhl$C$YS $end
$var real 1 M \tpllh$A$YC $end
$var real 1 N \tpllh$A$YS $end
$var real 1 O \tpllh$B$YC $end
$var real 1 P \tpllh$B$YS $end
$var real 1 Q \tpllh$C$YC $end
$var real 1 R \tpllh$C$YS $end
$upscope $end
$upscope $end
$scope begin genblk1[2] $end
$var parameter 3 S idx $end
$scope module fa $end
$var wire 1 T A $end
$var wire 1 U B $end
$var wire 1 V C $end
$var wire 1 W I0_out $end
$var wire 1 X I1_out $end
$var wire 1 Y I3_out $end
$var wire 1 Z I5_out $end
$var wire 1 [ YC $end
$var wire 1 \ YS $end
$var real 1 ] \tphhl$A$YC $end
$var real 1 ^ \tphhl$B$YC $end
$var real 1 _ \tphhl$C$YC $end
$var real 1 ` \tplhl$A$YS $end
$var real 1 a \tplhl$B$YS $end
$var real 1 b \tplhl$C$YS $end
$var real 1 c \tpllh$A$YC $end
$var real 1 d \tpllh$A$YS $end
$var real 1 e \tpllh$B$YC $end
$var real 1 f \tpllh$B$YS $end
$var real 1 g \tpllh$C$YC $end
$var real 1 h \tpllh$C$YS $end
$upscope $end
$upscope $end
$scope begin genblk1[3] $end
$var parameter 3 i idx $end
$scope module fa $end
$var wire 1 j A $end
$var wire 1 k B $end
$var wire 1 l C $end
$var wire 1 m I0_out $end
$var wire 1 n I1_out $end
$var wire 1 o I3_out $end
$var wire 1 p I5_out $end
$var wire 1 q YC $end
$var wire 1 r YS $end
$var real 1 s \tphhl$A$YC $end
$var real 1 t \tphhl$B$YC $end
$var real 1 u \tphhl$C$YC $end
$var real 1 v \tplhl$A$YS $end
$var real 1 w \tplhl$B$YS $end
$var real 1 x \tplhl$C$YS $end
$var real 1 y \tpllh$A$YC $end
$var real 1 z \tpllh$A$YS $end
$var real 1 { \tpllh$B$YC $end
$var real 1 | \tpllh$B$YS $end
$var real 1 } \tpllh$C$YC $end
$var real 1 ~ \tpllh$C$YS $end
$upscope $end
$upscope $end
$scope begin genblk1[4] $end
$var parameter 4 !" idx $end
$scope module fa $end
$var wire 1 "" A $end
$var wire 1 #" B $end
$var wire 1 $" C $end
$var wire 1 %" I0_out $end
$var wire 1 &" I1_out $end
$var wire 1 '" I3_out $end
$var wire 1 (" I5_out $end
$var wire 1 )" YC $end
$var wire 1 *" YS $end
$var real 1 +" \tphhl$A$YC $end
$var real 1 ," \tphhl$B$YC $end
$var real 1 -" \tphhl$C$YC $end
$var real 1 ." \tplhl$A$YS $end
$var real 1 /" \tplhl$B$YS $end
$var real 1 0" \tplhl$C$YS $end
$var real 1 1" \tpllh$A$YC $end
$var real 1 2" \tpllh$A$YS $end
$var real 1 3" \tpllh$B$YC $end
$var real 1 4" \tpllh$B$YS $end
$var real 1 5" \tpllh$C$YC $end
$var real 1 6" \tpllh$C$YS $end
$upscope $end
$upscope $end
$scope begin genblk1[5] $end
$var parameter 4 7" idx $end
$scope module fa $end
$var wire 1 8" A $end
$var wire 1 9" B $end
$var wire 1 :" C $end
$var wire 1 ;" I0_out $end
$var wire 1 <" I1_out $end
$var wire 1 =" I3_out $end
$var wire 1 >" I5_out $end
$var wire 1 ?" YC $end
$var wire 1 @" YS $end
$var real 1 A" \tphhl$A$YC $end
$var real 1 B" \tphhl$B$YC $end
$var real 1 C" \tphhl$C$YC $end
$var real 1 D" \tplhl$A$YS $end
$var real 1 E" \tplhl$B$YS $end
$var real 1 F" \tplhl$C$YS $end
$var real 1 G" \tpllh$A$YC $end
$var real 1 H" \tpllh$A$YS $end
$var real 1 I" \tpllh$B$YC $end
$var real 1 J" \tpllh$B$YS $end
$var real 1 K" \tpllh$C$YC $end
$var real 1 L" \tpllh$C$YS $end
$upscope $end
$upscope $end
$scope begin genblk1[6] $end
$var parameter 4 M" idx $end
$scope module fa $end
$var wire 1 N" A $end
$var wire 1 O" B $end
$var wire 1 P" C $end
$var wire 1 Q" I0_out $end
$var wire 1 R" I1_out $end
$var wire 1 S" I3_out $end
$var wire 1 T" I5_out $end
$var wire 1 U" YC $end
$var wire 1 V" YS $end
$var real 1 W" \tphhl$A$YC $end
$var real 1 X" \tphhl$B$YC $end
$var real 1 Y" \tphhl$C$YC $end
$var real 1 Z" \tplhl$A$YS $end
$var real 1 [" \tplhl$B$YS $end
$var real 1 \" \tplhl$C$YS $end
$var real 1 ]" \tpllh$A$YC $end
$var real 1 ^" \tpllh$A$YS $end
$var real 1 _" \tpllh$B$YC $end
$var real 1 `" \tpllh$B$YS $end
$var real 1 a" \tpllh$C$YC $end
$var real 1 b" \tpllh$C$YS $end
$upscope $end
$upscope $end
$scope begin genblk1[7] $end
$var parameter 4 c" idx $end
$scope module fa $end
$var wire 1 d" A $end
$var wire 1 e" B $end
$var wire 1 f" C $end
$var wire 1 g" I0_out $end
$var wire 1 h" I1_out $end
$var wire 1 i" I3_out $end
$var wire 1 j" I5_out $end
$var wire 1 k" YC $end
$var wire 1 l" YS $end
$var real 1 m" \tphhl$A$YC $end
$var real 1 n" \tphhl$B$YC $end
$var real 1 o" \tphhl$C$YC $end
$var real 1 p" \tplhl$A$YS $end
$var real 1 q" \tplhl$B$YS $end
$var real 1 r" \tplhl$C$YS $end
$var real 1 s" \tpllh$A$YC $end
$var real 1 t" \tpllh$A$YS $end
$var real 1 u" \tpllh$B$YC $end
$var real 1 v" \tpllh$B$YS $end
$var real 1 w" \tpllh$C$YC $end
$var real 1 x" \tpllh$C$YS $end
$upscope $end
$upscope $end
$upscope $end
$upscope $end
$enddefinitions $end
$comment Show the parameter values. $end
$dumpall
r0.2 x"
r0.11 w"
r0.2 v"
r0.11 u"
r0.2 t"
r0.11 s"
r0.18 r"
r0.19 q"
r0.18 p"
r0.12 o"
r0.13 n"
r0.13 m"
b111 c"
r0.2 b"
r0.11 a"
r0.2 `"
r0.11 _"
r0.2 ^"
r0.11 ]"
r0.18 \"
r0.19 ["
r0.18 Z"
r0.12 Y"
r0.13 X"
r0.13 W"
b110 M"
r0.2 L"
r0.11 K"
r0.2 J"
r0.11 I"
r0.2 H"
r0.11 G"
r0.18 F"
r0.19 E"
r0.18 D"
r0.12 C"
r0.13 B"
r0.13 A"
b101 7"
r0.2 6"
r0.11 5"
r0.2 4"
r0.11 3"
r0.2 2"
r0.11 1"
r0.18 0"
r0.19 /"
r0.18 ."
r0.12 -"
r0.13 ,"
r0.13 +"
b100 !"
r0.2 ~
r0.11 }
r0.2 |
r0.11 {
r0.2 z
r0.11 y
r0.18 x
r0.19 w
r0.18 v
r0.12 u
r0.13 t
r0.13 s
b11 i
r0.2 h
r0.11 g
r0.2 f
r0.11 e
r0.2 d
r0.11 c
r0.18 b
r0.19 a
r0.18 `
r0.12 _
r0.13 ^
r0.13 ]
b10 S
r0.2 R
r0.11 Q
r0.2 P
r0.11 O
r0.2 N
r0.11 M
r0.18 L
r0.19 K
r0.18 J
r0.12 I
r0.13 H
r0.13 G
b1 =
r0.2 <
r0.11 ;
r0.2 :
r0.11 9
r0.2 8
r0.11 7
r0.18 6
r0.19 5
r0.18 4
r0.12 3
r0.13 2
r0.13 1
b0 '
b1000 &
$end
#0
$dumpvars
1l"
0k"
1j"
0i"
0h"
0g"
0f"
1e"
0d"
0V"
0U"
0T"
0S"
0R"
0Q"
0P"
0O"
0N"
1@"
0?"
1>"
0="
0<"
0;"
0:"
09"
18"
0*"
0)"
0("
0'"
0&"
0%"
0$"
0#"
0""
1r
0q
0p
0o
0n
0m
1l
0k
0j
1\
0[
1Z
0Y
0X
0W
0V
0U
1T
0F
0E
0D
0C
0B
0A
0@
0?
0>
00
1/
1.
0-
1,
0+
1*
1)
0(
b10 %
b10101100 $
b1001 #
b10000001 "
b100100 !
$end
#100
b11010 %
b11100011 $
1[
1q
0r
10
1F
1V"
0\
1X
1n
1p
0j"
1+
1-
0.
1D
1T"
1V
1f"
1U
1k
0e"
1(
1>
0T
1N"
b10001101 #
b1101 "
b1100011 !
#200
b10 %
b1110110 $
00
0[
0q
1*"
1\
0l"
0+
0,
1.
0X
0n
0p
1("
0V
0l
0f"
0)
1?
0U
0k
1#"
0>
1T
b1 #
b10010 "
b1100101 !
#300
b1111010 %
b1000110 $
1)"
1[
1?"
1q
1Y
1&"
0*"
0@"
1W
1X
0Z
1<"
1o
1p
1V
1l
1$"
1:"
1U
19"
1O"
1j
08"
0N"
b111101 #
b1110110 "
b1101 !
#400
b111011010 %
b10011000 $
0F
1r
0)"
1*"
1U"
1k"
0X
0Y
0\
0V"
1l"
0D
1m
1n
0p
0&"
0("
0<"
1h"
1="
1S"
1g"
1i"
0V
1P"
1f"
0?
1k
0#"
09"
0O"
1e"
18"
1N"
1d"
b11111001 #
b10001100 "
b11101101 !
#500
b110001100 %
b10101001 $
0/
1E
0q
0?"
1@"
10
0*"
0S"
0n
1Q"
0T"
0-
1C
1D
0m
0o
0="
0>"
0*
1@
0$"
0P"
1)
0k
1O"
0(
1>
0j
08"
b10101010 #
b11000101 "
b11000110 !
#600
b11101110 %
b10000000 $
1)"
0k"
1/
00
1?"
0r
0@"
0i"
1B
1&"
1("
0g"
0h"
1j"
1+
0.
0C
1;"
0l
1$"
0:"
0f"
1?
1#"
19"
0e"
1(
0>
18"
b10010 #
b1110111 "
b11100101 !
#700
b110011100 %
b10110011 $
0)"
0/
10
1k"
1F
1q
0?"
1@"
1Y
0&"
1*"
1R"
1i"
0+
1.
0W
1Z
1g"
1h"
0j"
1A
1C
0D
1o
1p
0;"
1>"
0Q"
1T"
1V
1l
0$"
1P"
1f"
0)
0U
1e"
1>
1j
08"
0N"
b11001110 #
b11110010 "
b10001111 !
#800
b110011000 %
b1110001 $
0E
1V"
0F
0h"
0i"
0l"
0B
1X
0("
0A
0C
0Y
1Q"
1S"
0T"
0@
1$"
0f"
1)
0?
1U
0#"
09"
0(
0>
0T
18"
1N"
b1011100 #
b11000101 "
b11101000 !
#900
b11110101 $
b1011010 %
1?"
0k"
1l"
1/
1\
0U"
1,
0o
1="
1m
0p
1;"
1<"
0>"
0R"
0g"
1j"
1+
1-
0.
1W
1Y
0Z
1("
0Q"
0S"
1*
0l
0$"
1:"
1k
19"
0O"
0e"
1(
1T
1""
0N"
b1100101 #
b101101 "
b10111101 !
#1000
b100 %
b11101001 $
0/
0?"
1E
0[
0q
1r
0*"
0-
0\
0="
0+
0,
1.
0X
0;"
0<"
1>"
1A
0W
0Y
0m
1p
0("
1T"
0j"
0*
0V
0:"
0P"
1f"
0)
1?
0U
09"
1>
0T
0j
0""
1N"
0d"
b10000000 #
b1010 "
b1100011 !
#1100
b101010000 %
b10111 $
1q
1?"
0@"
1k"
0l"
0E
1F
0V"
1\
1n
0r
1*"
1;"
0>"
1h"
1j"
0.
0A
1D
0T"
1*
1V
1l
1$"
19"
1e"
0(
0>
0N"
b10011101 #
b10101010 "
b100000 !
#1200
b101110 %
b10001000 $
1/
00
0q
1r
0k"
1E
0F
1[
0\
1)"
0?"
0*"
1l"
1,
1.
0n
0p
0h"
1A
0D
1Y
1Z
1%"
0;"
0$"
0f"
1)
0k
1#"
09"
0e"
1>
1T
1""
08"
1d"
b1101 #
b10011 "
b10010110 !
#1300
b10100110 %
b11101101 $
1@"
10
0[
1\
1U"
1'"
1V"
1p
0%"
1("
1>"
1R"
1+
1-
0.
0Y
0Z
1Q"
1S"
0j"
0l
1$"
1P"
1f"
1k
0#"
19"
1O"
1(
0T
1N"
0d"
b11010101 #
b1101011 "
b1010011 !
#1400
b11100 %
b10110001 $
1q
1[
0\
0/
0)"
1*"
0U"
1n
0r
0V"
0,
1X
1Z
0R"
1j"
0+
0-
0'"
0("
0Q"
0S"
1l
0P"
0f"
0)
1U
0O"
1e"
0(
0""
0N"
b11101 #
b10101110 "
b10 !
#1500
b10110 %
b11100110 $
0[
1/
1V"
00
1B
1C
1F
1\
0*"
0X
0n
1+
1o
1T"
0*
1@
0V
0$"
1)
0U
0k
0e"
1(
1T
1j
1N"
1d"
b1010 #
b100011 "
b11001111 !
#1600
b111110100 %
b100 $
1?"
1U"
1k"
0F
1)"
0/
0o
1<"
0@"
1S"
0V"
1i"
0l"
0A
0B
1D
1m
0p
1&"
1("
0+
0l
1$"
1:"
1P"
1f"
0)
0?
1U
1k
1#"
0(
0T
b11110010 #
b111100 "
b11001010 !
#1700
b110010000 %
b10011 $
0E
10
0\
0)"
1*"
0?"
0C
1F
1o
1.
0Z
0m
1p
0&"
0("
0<"
0>"
1R"
0S"
0@
1l
0:"
1)
0U
0k
0#"
09"
1O"
0N"
b11011000 #
b1000001 "
b10001010 !
#1800
b111010010 %
b11010 $
1/
1r
1?"
1,
00
1m
1n
0p
0R"
1h"
0D
1("
1="
1>"
1S"
0i"
1*
1@
0$"
1:"
1k
0O"
1e"
0>
1""
18"
1N"
0d"
b11101011 #
b10001001 "
b1111000 !
#1900
b101001100 %
b11011110 $
0/
1E
1[
0q
0U"
1l"
1\
1V"
0,
0.
1B
1X
0n
1A
1C
1W
1Y
0m
0o
0S"
1g"
1i"
0j"
0*
1V
0P"
0)
1?
1U
0k
1O"
1>
1T
0j
0N"
1d"
b10101110 #
b11000110 "
b10110110 !
#2000
b1010100 %
b10011101 $
0[
0V"
0k"
0F
1q
10
0Y
0="
0i"
0W
0X
1Z
1n
1;"
0>"
0T"
0g"
0h"
1j"
0A
0C
1D
1m
1o
1*
0V
0:"
0f"
0U
1k
19"
0O"
0e"
0>
1j
b1011 #
b101010 "
b10111100 !
#2100
b10001010 %
b10111011 $
0E
1F
1[
0?"
1@"
1/
0q
1U"
0\
1,
0B
0D
1X
0n
0;"
1>"
1+
1-
0m
0o
1S"
1T"
1V
1P"
1)
0?
1U
0k
09"
1e"
1(
0T
0j
1N"
0d"
b1001111 #
b10000101 "
b1110001 !
#2200
b1110100 %
b1111111 $
0/
0[
1\
1)"
1?"
0l"
1E
1q
0U"
1V"
0-
1'"
1="
0+
0,
1.
1B
0X
0Z
1n
1%"
1&"
0("
1;"
1<"
0>"
0j"
1A
1C
1m
1o
0S"
0T"
0*
1$"
1:"
0)
1?
0U
1k
1#"
19"
0e"
1>
1j
0N"
b1111110 #
b111010 "
b111011 !
#2300
b110100010 %
b111101 $
1/
1U"
0V"
1k"
0E
0q
0?"
1-
0F
0<"
1+
1,
0.
0B
0n
1R"
1T"
1h"
1j"
0A
0C
1Z
0m
0o
0;"
0="
1>"
1*
0@
0V
0:"
1f"
1)
0?
0k
1O"
1e"
0>
1T
0j
08"
b11011001 #
b11110001 "
b10101 !
#2400
b10011100 %
b10110001 $
1[
1q
0r
0k"
1l"
0/
1E
0)"
0\
0R"
0,
1X
1n
1p
0&"
0h"
0j"
0+
0-
1C
1D
0%"
0'"
1Q"
0T"
1@
1V
0P"
0)
1U
1k
0#"
09"
0e"
0(
1>
0T
0""
18"
1N"
b10011111 #
b1001100 "
b1100010 !
#2500
b101111110 %
b11000000 $
1)"
0*"
1?"
1/
00
0U"
1V"
1k"
0n
0@"
0X
1&"
1("
1<"
1h"
1-
1.
1Y
1m
0p
0Q"
1T"
1g"
1i"
0l
1:"
0U
1#"
19"
1e"
1(
1T
1j
08"
0N"
1d"
b10110111 #
b11111000 "
b10001111 !
#2600
b10111110 %
b10011000 $
1U"
0?"
0k"
1*"
0Y
1n
1o
1r
1R"
0V"
0i"
1W
0Z
0<"
0>"
0g"
0h"
1j"
1%"
1'"
0("
0V
1l
0:"
1P"
0f"
1U
09"
0e"
1""
b1011011 #
b1011100 "
b10011111 !
#2700
b110010010 %
b10000 $
1k"
0E
0[
0)"
0-
0n
0o
0r
1i"
0l"
1+
0.
0&"
0C
0D
0W
0%"
0'"
0*
0@
0l
1f"
1)
0U
0#"
0>
0T
0""
b11010000 #
b1001001 "
b10001001 !
#2800
b110101110 %
1E
1[
0q
1)"
0R"
1&"
1C
1D
1Y
1Z
0m
1%"
1'"
1Q"
0T"
1@
1V
0P"
0k
1#"
1>
1T
0j
1""
1N"
b10010110 #
b1010001 "
b11010111 !
#2900
b110010000 %
b110 $
0[
0/
0E
1q
0)"
1F
0Y
1\
0*"
1R"
0&"
1h"
0+
0C
1o
1p
0%"
0'"
0Q"
1T"
0i"
0@
0V
1l
0$"
1P"
0)
1?
0#"
1e"
0(
0>
1j
0""
0N"
0d"
b11001000 #
b11000010 "
b1100 !
#3000
b1101110 %
b1011000 $
1[
0\
0U"
0k"
1/
1E
0q
1)"
1?"
0F
1r
1*"
1V"
1W
0Z
1&"
0R"
0h"
0j"
1+
1C
0o
1%"
1'"
1;"
1@
0l
1$"
0P"
0f"
1)
0?
1U
1k
1#"
19"
0O"
0e"
1(
1>
0j
1""
18"
1N"
b10010 #
b111101 "
b1110111 !
#3100
b11111010 %
b101010 $
0E
0*"
1U"
0V"
1q
1,
0C
1F
1n
1<"
1="
1@"
0%"
0&"
1("
1Q"
0T"
0+
1.
1m
1o
0p
1*
0@
1l
1:"
0#"
1O"
0(
1j
b111001 #
b1101101 "
b1111110 !
#3200
b100101110 %
b1001001 $
1E
0F
0q
1k"
10
0?"
0U"
1V"
1Y
0o
0'"
0@"
1A
0D
0W
1Z
0m
0n
1p
1%"
0("
0<"
1h"
1j"
1+
1-
0.
0;"
0="
0Q"
1T"
1V
0l
0$"
0:"
1f"
1?
0U
0k
1#"
09"
1e"
1(
08"
0N"
b10000101 #
b11010011 "
b11111 !
#3300
b1101010 $
b10110010 %
1q
0k"
00
0E
1F
0[
1@"
1U"
1o
1R"
1m
1n
0p
0h"
0j"
0+
0-
1.
0A
1D
0Y
0Z
1>"
1Q"
1S"
0T"
0V
1l
1P"
0f"
1k
0e"
0(
0>
0T
18"
1N"
b1001001 #
b1011011 "
b1111000 !
#3400
b1110100 %
b1001101 $
0/
1?"
0@"
1E
0F
1\
0U"
10
1'"
0,
0%"
1("
1;"
0>"
0R"
1A
0D
1Z
0Q"
0S"
0*
1$"
0)
0#"
19"
0O"
1(
1>
1T
0N"
b1011000 #
b101010 "
b111111 !
#3500
b100011100 %
b10010100 $
1[
00
0r
0)"
1*"
0?"
1k"
1Y
0V"
1l"
1W
1X
0Z
1h"
0.
0m
0o
1p
0'"
0("
0;"
1g"
1i"
1V
0P"
1f"
1U
09"
1e"
0(
0j
0""
08"
1d"
b10011100 #
b10001110 "
b10000110 !
#3600
b11100100 %
b10101111 $
0q
0k"
0[
1)"
0*"
1?"
1U"
10
1B
1C
1F
0X
1r
1@"
0i"
0n
1<"
0g"
0h"
1j"
0W
0Y
1Z
1'"
1("
1;"
1="
1S"
1T"
1*
1@
0V
0l
1:"
1P"
0f"
0k
19"
0e"
0T
1j
1""
18"
1N"
b1110011 #
b100110 "
b11111010 !
#3700
b101000110 %
b111111 $
1k"
1/
0)"
1*"
0U"
1i"
0l"
1,
1+
1-
0'"
0("
0S"
0T"
0P"
1f"
1)
1k
1(
0j
0""
0N"
b10110011 #
b101111 "
b10100011 !
#3800
b10101110 %
b11101100 $
00
0F
1[
1)"
0*"
0?"
1U"
0k"
1l"
1X
1V"
0+
0,
1.
0A
0B
1D
0<"
1R"
1W
1Y
0Z
1'"
1("
0;"
0="
1Q"
1S"
0i"
0j"
1V
1P"
0)
0?
0k
09"
1O"
1T
1j
1""
08"
1N"
0d"
b11110111 #
b1000100 "
b1011111 !
#3900
b110010100 %
b1110111 $
0/
1q
1F
0[
0)"
1*"
1k"
0-
10
0X
1o
0r
0l"
1A
1B
0D
1>"
0W
0Y
1Z
0'"
0("
1g"
0*
0V
1l
0:"
0f"
1?
19"
1e"
0T
0""
1d"
b1011010 #
b11100110 "
b11001011 !
#4000
b111010010 %
b11110 $
1/
00
1r
0E
1?"
0@"
0V"
1h"
1+
0.
0B
1m
1n
0p
0A
0C
1;"
0>"
0Q"
0S"
1T"
0g"
1j"
1f"
1)
0?
1k
0>
18"
0N"
0d"
b11011010 #
b11101101 "
b101001 !
#4100
b111101010 %
b1111 $
1)"
0*"
1[
0q
1,
1-
10
1X
0n
1&"
1("
0R"
1W
1Y
0Z
0m
0o
1S"
1*
1V
0k
1#"
0O"
1T
0j
1N"
b11011111 #
b10110101 "
b1100101 !
#4200
b10100000 %
b11101101 $
0/
0?"
1@"
1V"
0k"
1l"
0[
0-
0F
0X
0+
0,
1.
0&"
0;"
1>"
1Q"
1R"
0T"
0h"
0j"
0W
0Y
1Z
1p
1'"
0*
0@
0V
0l
0)
0#"
09"
1O"
0e"
0T
1j
1""
b11010000 #
b1000100 "
b1111001 !
#4300
b1010100 %
b10001111 $
1q
1?"
0@"
1E
0)"
0U"
1F
1o
0V"
1B
0Z
1m
1n
0p
1;"
0>"
0R"
1j"
1A
1C
0'"
0("
0Q"
0S"
1@
1V
1l
0$"
0P"
0f"
1)
1?
0U
1k
19"
0O"
1e"
0(
1>
0""
0N"
b1110 #
b10101011 "
b101010 !
#4400
b110111000 %
b10111011 $
0E
1[
0\
1)"
0?"
1U"
1k"
0B
1*"
1@"
1h"
0.
1&"
0A
0C
1D
1Y
1Z
1%"
1'"
0;"
1S"
1T"
1g"
1i"
0j"
1*
0@
1$"
1:"
1P"
1f"
0)
1#"
09"
0>
1T
1""
08"
1N"
1d"
b11111101 #
b10011010 "
b11011100 !
#4500
b10001100 %
b11011011 $
1V"
0k"
1E
0q
0)"
1B
0&"
0@"
0i"
1X
0n
1Q"
1R"
0T"
0g"
0h"
1j"
1.
1A
1C
0D
0Y
0m
0o
0%"
0'"
1("
0*
1@
0$"
0:"
0f"
1U
0k
1O"
0e"
1(
1>
0T
0j
0""
b1001110 #
b1010110 "
b11000011 !
#4600
b1001100 %
0U"
1?"
0S"
0X
1p
0("
0Q"
0R"
1T"
1Y
1="
1>"
0j"
0l
1$"
1:"
0P"
1f"
0U
1k
0#"
0O"
1T
18"
0d"
b10110110 #
b1010 "
b1100111 !
#4700
b1110000 %
b11111001 $
1@"
0E
0[
1q
1)"
0F
1n
0B
1&"
1;"
1<"
0>"
0A
0C
0Y
0Z
1m
1o
0p
1%"
1'"
0@
0V
1l
1)
0?
1#"
19"
1O"
0(
0>
0T
1j
1""
0N"
b10111000 #
b1111001 "
b111000 !
#4800
b100101000 %
b11 $
1F
0V"
1[
0q
0?"
1k"
0r
0&"
0'"
0*"
0@"
0l"
1D
0n
0<"
0T"
1Y
1Z
0m
0o
0;"
0="
1g"
1V
0l
0$"
0:"
0f"
1?
0k
09"
0O"
1e"
1T
0j
08"
1d"
b100 #
b10010011 "
b10010100 !
#4900
b10110010 %
b11001111 $
1/
0[
1\
1q
1U"
0k"
1l"
1,
1r
1V"
1n
1R"
1+
1-
0.
0Y
0Z
1m
1o
1Q"
1S"
0g"
1j"
1*
1l
1P"
1k
1O"
1(
0T
1j
1N"
0d"
b1001101 #
b11011011 "
b1011001 !
#5000
b11111010 %
b11000010 $
1[
0\
1?"
0,
0-
00
0n
0o
0r
1'"
0D
1X
1Z
0%"
1("
1<"
1>"
0*
1@
0l
1$"
1:"
0?
1U
0#"
19"
0e"
1d"
b1110110 #
b1101101 "
b11011001 !
#5100
b100101100 %
b11101001 $
0?"
0q
1r
0U"
1k"
0/
1E
10
0F
0<"
1@"
0S"
1i"
0m
1p
1&"
0Q"
0R"
1T"
1g"
1h"
0j"
0+
1A
0'"
1*
0@
0:"
0P"
1f"
0)
1?
0k
1#"
0O"
1e"
0(
1>
0""
b10010101 #
b10110110 "
b11001010 !
#5200
b10001100 %
b10110101 $
1U"
0)"
1*"
1\
0r
0k"
1C
1S"
0V"
0A
1D
0&"
0("
0>"
0h"
1W
1Y
0Z
0p
0g"
0i"
1@
1:"
1P"
0?
0#"
09"
0e"
1T
0j
0d"
b11110111 #
b100 "
b1000110 !
#5300
b101010000 %
b1010101 $
0U"
1k"
0l"
0E
0[
1q
1?"
0X
0@"
0S"
1V"
1("
1h"
1j"
1.
0C
0D
0W
0Y
1Z
1o
1p
1;"
0*
0@
0V
1l
0$"
0:"
0P"
1#"
19"
1e"
1(
0>
0T
1j
18"
b10001000 #
b10110100 "
b1101001 !
#5400
b1011010 %
b11000010 $
1[
1/
0*"
0k"
1l"
00
1F
1X
0\
0o
1,
1m
0p
0("
0h"
0j"
0T"
1*
1@
1V
0l
1P"
1)
1k
0#"
0e"
0(
0N"
b11000111 #
b101101 "
b101000 !
#5500
b11000 %
b111010 $
0/
0?"
1@"
1n
1o
1r
1*"
0V"
0l"
0,
0.
0X
0;"
1>"
1D
1Y
0*
0@
1l
1$"
0P"
0f"
0)
0U
09"
1>
1T
b11100 #
b1000 "
b101110 !
#5600
b1111010 %
b11001000 $
1?"
0@"
1/
0F
1)"
0*"
1V"
1l"
1;"
0>"
1+
0D
1'"
1("
1T"
1j"
1)
19"
1(
0>
1""
1N"
1d"
b101001 "
b11111101 !
#5700
b100111100 %
b1100001 $
1k"
0l"
0/
1E
0r
0?"
10
1@"
1&"
1g"
0j"
0+
1A
0m
0o
1p
0'"
0;"
1*
1:"
0)
1?
1#"
09"
1O"
1e"
0(
1>
0j
0""
08"
0N"
b111101 #
b11011010 "
b10000110 !
#5800
b11100100 %
b1100101 $
0[
0q
1?"
1U"
0k"
1C
0Y
1\
1R"
0A
1D
0n
0p
1<"
1;"
1="
1Q"
1S"
0T"
0g"
1@
0V
0l
1P"
0?
0k
19"
0e"
18"
1N"
0d"
b1110011 #
b1110000 "
b1100110 !
#5900
b111110100 %
b11110 $
1F
0@"
1q
1*"
0V"
1k"
00
1r
1A
1B
0D
1n
0;"
0<"
1>"
1m
1o
1%"
1'"
0("
0Q"
0S"
1T"
1i"
1j"
0*
1l
1f"
1?
1U
1k
09"
0T
1j
1""
0N"
1d"
b11111010 #
b1011110 "
b10111010 !
#6000
b100110010 %
b1110110 $
0U"
1/
0E
0r
0?"
1@"
0B
1V"
0R"
1-
1.
0A
0C
1D
0m
0o
1p
0="
0>"
1*
0@
0P"
0U
0O"
1(
0>
1T
0j
08"
1N"
b10111001 #
b11010 "
b11010101 !
#6100
b100101100 %
b1100001 $
0/
1[
0\
0q
1E
0F
0-
10
0&"
0'"
0*"
1W
0Z
0n
0p
1h"
1A
0D
1>"
0T"
0i"
0*
0l
0$"
0:"
1P"
1U
0k
1e"
1>
18"
0N"
0d"
b11000000 #
b10010110 "
b110111 !
#6200
b1101100 %
b11101101 $
0k"
1?"
1X
1Y
1\
1r
1&"
1="
0h"
1l"
1;"
1<"
0>"
0.
0%"
1("
1*
1V
1l
1$"
1:"
0f"
19"
0(
0""
b1111101 #
b10110110 "
b100110 !
#6300
b110111000 %
b100010 $
0E
1F
1q
0r
0?"
1U"
0V"
1k"
0l"
00
0X
0Y
0\
0&"
0<"
0A
1D
1o
1p
1'"
0;"
0="
1S"
1T"
1g"
0j"
0*
0V
0#"
09"
0>
1j
1""
08"
1N"
1d"
b1111000 #
b10000110 "
b11011100 !
#6400
b1101010 $
b110111110 %
1/
1r
1V"
1E
1B
1Y
0'"
1h"
1,
1.
0W
1Z
1m
1n
0p
1%"
0("
1Q"
1R"
0T"
1A
1C
0D
1>"
0g"
1j"
1*
1@
1V
0$"
0:"
1f"
1)
0U
1k
1#"
1O"
1>
18"
0d"
b11001111 #
b11011011 "
b1111110 !
#6500
b11110010 %
b11100010 $
0k"
1?"
0E
0[
0B
0n
0o
0r
1="
0h"
1l"
0,
1;"
1<"
0>"
1-
0A
0C
1D
0Y
0Z
0@
0V
0l
1:"
0f"
0)
19"
1(
0>
0T
b1100001 #
b11111010 "
b1111001 !
#6600
b100001110 %
b110000 $
1k"
0)"
1*"
1E
1[
0q
0?"
0U"
0-
0F
0<"
0V"
1h"
0l"
1+
0.
0%"
1("
0R"
1C
1Y
1Z
0m
0;"
0="
1>"
0Q"
0S"
0*
1@
1V
0:"
0P"
1f"
1)
0?
0k
0#"
0O"
1>
1T
0j
08"
0N"
b10000110 #
b10100001 "
b10111 !
