apps/waveform/test_data/dump(2).vcd
$date
	Fri Dec 20 10:59:19 2024
$end
$version
	Icarus Verilog
$end
$timescale
	10ps
$end
$scope module tb $end
$scope module DUT $end
$var wire 1 ! clk $end
$var wire 8 " x [7:0] $end
$var wire 128 # y [127:0] $end
$var wire 20 $ z [19:0] $end
$var parameter 32 % NBITS $end
$var parameter 32 & NTAPS $end
$var reg 32 ' i [31:0] $end
$var reg 8 ( xin [7:0] $end
$var reg 20 ) zcomb [19:0] $end
$var reg 20 * zreg [19:0] $end
$scope begin genblk1[0] $end
$var parameter 2 + idx $end
$upscope $end
$scope begin genblk1[1] $end
$var parameter 2 , idx $end
$upscope $end
$scope begin genblk1[2] $end
$var parameter 3 - idx $end
$upscope $end
$scope begin genblk1[3] $end
$var parameter 3 . idx $end
$upscope $end
$scope begin genblk1[4] $end
$var parameter 4 / idx $end
$upscope $end
$scope begin genblk1[5] $end
$var parameter 4 0 idx $end
$upscope $end
$scope begin genblk1[6] $end
$var parameter 4 1 idx $end
$upscope $end
$scope begin genblk1[7] $end
$var parameter 4 2 idx $end
$upscope $end
$scope begin genblk1[8] $end
$var parameter 5 3 idx $end
$upscope $end
$scope begin genblk1[9] $end
$var parameter 5 4 idx $end
$upscope $end
$scope begin genblk1[10] $end
$var parameter 5 5 idx $end
$upscope $end
$scope begin genblk1[11] $end
$var parameter 5 6 idx $end
$upscope $end
$scope begin genblk1[12] $end
$var parameter 5 7 idx $end
$upscope $end
$scope begin genblk1[13] $end
$var parameter 5 8 idx $end
$upscope $end
$scope begin genblk1[14] $end
$var parameter 5 9 idx $end
$upscope $end
$scope begin genblk1[15] $end
$var parameter 5 : idx $end
$upscope $end
$scope begin genblk2[1] $end
$var parameter 2 ; idx $end
$upscope $end
$scope begin genblk2[2] $end
$var parameter 3 < idx $end
$upscope $end
$scope begin genblk2[3] $end
$var parameter 3 = idx $end
$upscope $end
$scope begin genblk2[4] $end
$var parameter 4 > idx $end
$upscope $end
$scope begin genblk2[5] $end
$var parameter 4 ? idx $end
$upscope $end
$scope begin genblk2[6] $end
$var parameter 4 @ idx $end
$upscope $end
$scope begin genblk2[7] $end
$var parameter 4 A idx $end
$upscope $end
$scope begin genblk2[8] $end
$var parameter 5 B idx $end
$upscope $end
$scope begin genblk2[9] $end
$var parameter 5 C idx $end
$upscope $end
$scope begin genblk2[10] $end
$var parameter 5 D idx $end
$upscope $end
$scope begin genblk2[11] $end
$var parameter 5 E idx $end
$upscope $end
$scope begin genblk2[12] $end
$var parameter 5 F idx $end
$upscope $end
$scope begin genblk2[13] $end
$var parameter 5 G idx $end
$upscope $end
$scope begin genblk2[14] $end
$var parameter 5 H idx $end
$upscope $end
$scope begin genblk2[15] $end
$var parameter 5 I idx $end
$upscope $end
$scope begin genblk3[0] $end
$var wire 16 J yext [15:0] $end
$var wire 16 K xext [15:0] $end
$var parameter 2 L idx $end
$upscope $end
$scope begin genblk3[1] $end
$var wire 16 M yext [15:0] $end
$var wire 16 N xext [15:0] $end
$var parameter 2 O idx $end
$upscope $end
$scope begin genblk3[2] $end
$var wire 16 P yext [15:0] $end
$var wire 16 Q xext [15:0] $end
$var parameter 3 R idx $end
$upscope $end
$scope begin genblk3[3] $end
$var wire 16 S yext [15:0] $end
$var wire 16 T xext [15:0] $end
$var parameter 3 U idx $end
$upscope $end
$scope begin genblk3[4] $end
$var wire 16 V yext [15:0] $end
$var wire 16 W xext [15:0] $end
$var parameter 4 X idx $end
$upscope $end
$scope begin genblk3[5] $end
$var wire 16 Y yext [15:0] $end
$var wire 16 Z xext [15:0] $end
$var parameter 4 [ idx $end
$upscope $end
$scope begin genblk3[6] $end
$var wire 16 \ yext [15:0] $end
$var wire 16 ] xext [15:0] $end
$var parameter 4 ^ idx $end
$upscope $end
$scope begin genblk3[7] $end
$var wire 16 _ yext [15:0] $end
$var wire 16 ` xext [15:0] $end
$var parameter 4 a idx $end
$upscope $end
$scope begin genblk3[8] $end
$var wire 16 b yext [15:0] $end
$var wire 16 c xext [15:0] $end
$var parameter 5 d idx $end
$upscope $end
$scope begin genblk3[9] $end
$var wire 16 e yext [15:0] $end
$var wire 16 f xext [15:0] $end
$var parameter 5 g idx $end
$upscope $end
$scope begin genblk3[10] $end
$var wire 16 h yext [15:0] $end
$var wire 16 i xext [15:0] $end
$var parameter 5 j idx $end
$upscope $end
$scope begin genblk3[11] $end
$var wire 16 k yext [15:0] $end
$var wire 16 l xext [15:0] $end
$var parameter 5 m idx $end
$upscope $end
$scope begin genblk3[12] $end
$var wire 16 n yext [15:0] $end
$var wire 16 o xext [15:0] $end
$var parameter 5 p idx $end
$upscope $end
$scope begin genblk3[13] $end
$var wire 16 q yext [15:0] $end
$var wire 16 r xext [15:0] $end
$var parameter 5 s idx $end
$upscope $end
$scope begin genblk3[14] $end
$var wire 16 t yext [15:0] $end
$var wire 16 u xext [15:0] $end
$var parameter 5 v idx $end
$upscope $end
$scope begin genblk3[15] $end
$var wire 16 w yext [15:0] $end
$var wire 16 x xext [15:0] $end
$var parameter 5 y idx $end
$upscope $end
$upscope $end
$upscope $end
$enddefinitions $end
$comment Show the parameter values. $end
$dumpall
b1111 y
b1110 v
b1101 s
b1100 p
b1011 m
b1010 j
b1001 g
b1000 d
b111 a
b110 ^
b101 [
b100 X
b11 U
b10 R
b1 O
b0 L
b1111 I
b1110 H
b1101 G
b1100 F
b1011 E
b1010 D
b1001 C
b1000 B
b111 A
b110 @
b101 ?
b100 >
b11 =
b10 <
b1 ;
b1111 :
b1110 9
b1101 8
b1100 7
b1011 6
b1010 5
b1001 4
b1000 3
b111 2
b110 1
b101 0
b100 /
b11 .
b10 -
b1 ,
b0 +
b10000 &
b1000 %
$end
#0
$dumpvars
bx x
bx w
bx u
bx t
bx r
bx q
bx o
bx n
bx l
bx k
bx i
bx h
bx f
bx e
bx c
bx b
bx `
bx _
bx ]
bx \
bx Z
bx Y
bx W
bx V
bx T
bx S
bx Q
bx P
bx N
bx M
bx K
bx J
bx *
bx )
bx (
bx '
bx $
bx #
bx "
0!
$end
#200
b1111111111000110 w
b1111111111111001 t
b1111111110001100 q
b1111111111101101 n
b111101 k
b1110110 h
b1101 e
b1 b
b10010 _
b1100101 \
b1111111110001101 Y
b1101 V
b1100011 S
b1001 P
b1111111110000001 M
b100100 J
b11000110111110011000110011101101001111010111011000001101000000010001001001100101100011010000110101100011000010011000000100100100 #
#50000
1!
#50200
b11000101 "
#100000
0!
#150000
b11000101 (
1!
#150200
b10101010 "
#200000
0!
#250000
b10000 '
bx )
b1111111111000101 K
b10101010 (
1!
#250200
b11100101 "
#300000
0!
#350000
b10000 '
bx )
b1111111110101010 K
b1111111111000101 N
b11100101 (
1!
#350200
b1110111 "
#400000
0!
#450000
b10000 '
bx )
b1111111110101010 N
b1111111111000101 Q
b1111111111100101 K
b1110111 (
1!
#450200
b10010 "
#500000
0!
#550000
b10000 '
bx )
b1110111 K
b1111111111000101 T
b1111111110101010 Q
b1111111111100101 N
b10010 (
1!
#550200
b10001111 "
#600000
0!
#650000
b10000 '
bx )
b1110111 N
b1111111111100101 Q
b1111111110101010 T
b1111111111000101 W
b10010 K
b10001111 (
1!
#650200
b11110010 "
#700000
0!
#750000
b10000 '
bx )
b1111111110001111 K
b1111111111000101 Z
b1111111110101010 W
b1111111111100101 T
b1110111 Q
b10010 N
b11110010 (
1!
#750200
b11001110 "
#800000
0!
#850000
b10000 '
bx )
b1111111110001111 N
b10010 Q
b1110111 T
b1111111111100101 W
b1111111110101010 Z
b1111111111000101 ]
b1111111111110010 K
b11001110 (
1!
#850200
b11101000 "
#900000
0!
#950000
b10000 '
bx )
b1111111111001110 K
b1111111111000101 `
b1111111110101010 ]
b1111111111100101 Z
b1110111 W
b10010 T
b1111111110001111 Q
b1111111111110010 N
b11101000 (
1!
#950200
b11000101 "
#1000000
0!
#1050000
b10000 '
bx )
b1111111111001110 N
b1111111111110010 Q
b1111111110001111 T
b10010 W
b1110111 Z
b1111111111100101 ]
b1111111110101010 `
b1111111111000101 c
b1111111111101000 K
b11000101 (
1!
#1050200
b1011100 "
#1100000
0!
#1150000
b10000 '
bx )
b1111111111000101 K
b1111111111000101 f
b1111111110101010 c
b1111111111100101 `
b1110111 ]
b10010 Z
b1111111110001111 W
b1111111111110010 T
b1111111111001110 Q
b1111111111101000 N
b1011100 (
1!
#1150200
b10111101 "
#1200000
0!
#1250000
b10000 '
bx )
b1111111111000101 N
b1111111111101000 Q
b1111111111001110 T
b1111111111110010 W
b1111111110001111 Z
b10010 ]
b1110111 `
b1111111111100101 c
b1111111110101010 f
b1111111111000101 i
b1011100 K
b10111101 (
1!
#1250200
b101101 "
#1300000
0!
#1350000
b10000 '
bx )
b1111111110111101 K
b1111111111000101 l
b1111111110101010 i
b1111111111100101 f
b1110111 c
b10010 `
b1111111110001111 ]
b1111111111110010 Z
b1111111111001110 W
b1111111111101000 T
b1111111111000101 Q
b1011100 N
b101101 (
1!
#1350200
b1100101 "
#1400000
0!
#1450000
b10000 '
bx )
b1111111110111101 N
b1011100 Q
b1111111111000101 T
b1111111111101000 W
b1111111111001110 Z
b1111111111110010 ]
b1111111110001111 `
b10010 c
b1110111 f
b1111111111100101 i
b1111111110101010 l
b1111111111000101 o
b101101 K
b1100101 (
1!
#1450200
b1100011 "
#1500000
0!
#1550000
b10000 '
bx )
b1100101 K
b1111111111000101 r
b1111111110101010 o
b1111111111100101 l
b1110111 i
b10010 f
b1111111110001111 c
b1111111111110010 `
b1111111111001110 ]
b1111111111101000 Z
b1111111111000101 W
b1011100 T
b1111111110111101 Q
b101101 N
b1100011 (
1!
#1550200
b1010 "
#1600000
0!
#1650000
b10000 '
bx )
b1100101 N
b101101 Q
b1111111110111101 T
b1011100 W
b1111111111000101 Z
b1111111111101000 ]
b1111111111001110 `
b1111111111110010 c
b1111111110001111 f
b10010 i
b1110111 l
b1111111111100101 o
b1111111110101010 r
b1111111111000101 u
b1100011 K
b1010 (
1!
#1650200
b10000000 "
#1700000
0!
#1750000
b10000 '
b11111000000111111000 )
b1010 K
b1111111111000101 x
b1111111110101010 u
b1111111111100101 r
b1110111 o
b10010 l
b1111111110001111 i
b1111111111110010 f
b1111111111001110 c
b1111111111101000 `
b1111111111000101 ]
b1011100 Z
b1111111110111101 W
b101101 T
b1100101 Q
b1100011 N
b10000000 (
1!
#1750200
b100000 "
#1800000
0!
#1850000
b10000 '
b110100010000 )
b1010 N
b1100011 Q
b1100101 T
b101101 W
b1111111110111101 Z
b1011100 ]
b1111111111000101 `
b1111111111101000 c
b1111111111001110 f
b1111111111110010 i
b1111111110001111 l
b10010 o
b1110111 r
b1111111111100101 u
b1111111110101010 x
b1111111110000000 K
b100000 (
b11111000000111111000 $
b11111000000111111000 *
1!
#1850200
b10101010 "
#1900000
0!
#1950000
b10000 '
b10111011011001 )
b100000 K
b1111111111100101 x
b1110111 u
b10010 r
b1111111110001111 o
b1111111111110010 l
b1111111111001110 i
b1111111111101000 f
b1111111111000101 c
b1011100 `
b1111111110111101 ]
b101101 Z
b1100101 W
b1100011 T
b1010 Q
b1111111110000000 N
b110100010000 $
b110100010000 *
b10101010 (
1!
#1950200
b10011101 "
#2000000
0!
#2050000
b10000 '
b11111100011101000110 )
b100000 N
b1111111110000000 Q
b1010 T
b1100011 W
b1100101 Z
b101101 ]
b1111111110111101 `
b1011100 c
b1111111111000101 f
b1111111111101000 i
b1111111111001110 l
b1111111111110010 o
b1111111110001111 r
b10010 u
b1110111 x
b1111111110101010 K
b10011101 (
b10111011011001 $
b10111011011001 *
1!
#2050200
b10010110 "
#2100000
0!
#2150000
b10000 '
b11111101011111111010 )
b1111111110011101 K
b10010 x
b1111111110001111 u
b1111111111110010 r
b1111111111001110 o
b1111111111101000 l
b1111111111000101 i
b1011100 f
b1111111110111101 c
b101101 `
b1100101 ]
b1100011 Z
b1010 W
b1111111110000000 T
b100000 Q
b1111111110101010 N
b11111100011101000110 $
b11111100011101000110 *
b10010110 (
1!
#2150200
b10011 "
#2200000
0!
#2250000
b10000 '
b1001101001000101 )
b1111111110011101 N
b1111111110101010 Q
b100000 T
b1111111110000000 W
b1010 Z
b1100011 ]
b1100101 `
b101101 c
b1111111110111101 f
b1011100 i
b1111111111000101 l
b1111111111101000 o
b1111111111001110 r
b1111111111110010 u
b1111111110001111 x
b1111111110010110 K
b10011 (
b11111101011111111010 $
b11111101011111111010 *
1!
#2250200
b1101 "
#2300000
0!
#2350000
b10000 '
b110011000010000 )
b10011 K
b1111111111110010 x
b1111111111001110 u
b1111111111101000 r
b1111111111000101 o
b1011100 l
b1111111110111101 i
b101101 f
b1100101 c
b1100011 `
b1010 ]
b1111111110000000 Z
b100000 W
b1111111110101010 T
b1111111110011101 Q
b1111111110010110 N
b1001101001000101 $
b1001101001000101 *
b1101 (
1!
#2350200
b1010011 "
#2400000
0!
#2450000
b10000 '
b11111011010000001001 )
b10011 N
b1111111110010110 Q
b1111111110011101 T
b1111111110101010 W
b100000 Z
b1111111110000000 ]
b1010 `
b1100011 c
b1100101 f
b101101 i
b1111111110111101 l
b1011100 o
b1111111111000101 r
b1111111111101000 u
b1111111111001110 x
b1101 K
b1010011 (
b110011000010000 $
b110011000010000 *
1!
#2450200
b1101011 "
#2500000
0!
#2550000
b10000 '
b10001011001111 )
b1010011 K
b1111111111101000 x
b1111111111000101 u
b1011100 r
b1111111110111101 o
b101101 l
b1100101 i
b1100011 f
b1010 c
b1111111110000000 `
b100000 ]
b1111111110101010 Z
b1111111110011101 W
b1111111110010110 T
b10011 Q
b1101 N
b11111011010000001001 $
b11111011010000001001 *
b1101011 (
1!
#2550200
b11010101 "
#2600000
0!
#2650000
b10000 '
b110000010101010 )
b1010011 N
b1101 Q
b10011 T
b1111111110010110 W
b1111111110011101 Z
b1111111110101010 ]
b100000 `
b1111111110000000 c
b1010 f
b1100011 i
b1100101 l
b101101 o
b1111111110111101 r
b1011100 u
b1111111111000101 x
b1101011 K
b11010101 (
b10001011001111 $
b10001011001111 *
1!
#2650200
b10 "
#2700000
0!
#2750000
b10000 '
b11111011011100111000 )
b1111111111010101 K
b1011100 x
b1111111110111101 u
b101101 r
b1100101 o
b1100011 l
b1010 i
b1111111110000000 f
b100000 c
b1111111110101010 `
b1111111110011101 ]
b1111111110010110 Z
b10011 W
b1101 T
b1010011 Q
b1101011 N
b110000010101010 $
b110000010101010 *
b10 (
1!
#2750200
b10101110 "
#2800000
0!
#2850000
b10000 '
b11111010001001010011 )
b1111111111010101 N
b1101011 Q
b1010011 T
b1101 W
b10011 Z
b1111111110010110 ]
b1111111110011101 `
b1111111110101010 c
b100000 f
b1111111110000000 i
b1010 l
b1100011 o
b1100101 r
b101101 u
b1111111110111101 x
b10 K
b10101110 (
b11111011011100111000 $
b11111011011100111000 *
1!
#2850200
b11101 "
#2900000
0!
#2950000
b10000 '
b11111100101010110011 )
b1111111110101110 K
b101101 x
b1100101 u
b1100011 r
b1010 o
b1111111110000000 l
b100000 i
b1111111110101010 f
b1111111110011101 c
b1111111110010110 `
b10011 ]
b1101 Z
b1010011 W
b1101011 T
b1111111111010101 Q
b10 N
b11111010001001010011 $
b11111010001001010011 *
b11101 (
1!
#2950200
b11001111 "
#3000000
0!
#3050000
b10000 '
b11111100100010111100 )
b1111111110101110 N
b10 Q
b1111111111010101 T
b1101011 W
b1010011 Z
b1101 ]
b10011 `
b1111111110010110 c
b1111111110011101 f
b1111111110101010 i
b100000 l
b1111111110000000 o
b1010 r
b1100011 u
b1100101 x
b11101 K
b11001111 (
b11111100101010110011 $
b11111100101010110011 *
1!
#3050200
b100011 "
#3100000
0!
#3150000
b10000 '
b11111011000110000011 )
b1111111111001111 K
b1100011 x
b1010 u
b1111111110000000 r
b100000 o
b1111111110101010 l
b1111111110011101 i
b1111111110010110 f
b10011 c
b1101 `
b1010011 ]
b1101011 Z
b1111111111010101 W
b10 T
b1111111110101110 Q
b11101 N
b11111100100010111100 $
b11111100100010111100 *
b100011 (
1!
#3150200
b1010 "
#3200000
0!
#3250000
b10000 '
b11111111001110110001 )
b1111111111001111 N
b11101 Q
b1111111110101110 T
b10 W
b1111111111010101 Z
b1101011 ]
b1010011 `
b1101 c
b10011 f
b1111111110010110 i
b1111111110011101 l
b1111111110101010 o
b100000 r
b1111111110000000 u
b1010 x
b100011 K
b1010 (
b11111011000110000011 $
b11111011000110000011 *
1!
#3250200
b11001010 "
#3300000
0!
#3350000
b10000 '
b10010111110101 )
b1010 K
b1111111110000000 x
b100000 u
b1111111110101010 r
b1111111110011101 o
b1111111110010110 l
b10011 i
b1101 f
b1010011 c
b1101011 `
b1111111111010101 ]
b10 Z
b1111111110101110 W
b11101 T
b1111111111001111 Q
b100011 N
b11111111001110110001 $
b11111111001110110001 *
b11001010 (
1!
#3350200
b111100 "
#3400000
0!
#3450000
b10000 '
b100010011001000 )
b1010 N
b100011 Q
b1111111111001111 T
b11101 W
b1111111110101110 Z
b10 ]
b1111111111010101 `
b1101011 c
b1010011 f
b1101 i
b10011 l
b1111111110010110 o
b1111111110011101 r
b1111111110101010 u
b100000 x
b1111111111001010 K
b111100 (
b10010111110101 $
b10010111110101 *
1!
#3450200
b11110010 "
#3500000
0!
#3550000
b10000 '
b111010011010010 )
b111100 K
b1111111110101010 x
b1111111110011101 u
b1111111110010110 r
b10011 o
b1101 l
b1010011 i
b1101011 f
b1111111111010101 c
b10 `
b1111111110101110 ]
b11101 Z
b1111111111001111 W
b100011 T
b1010 Q
b1111111111001010 N
b100010011001000 $
b100010011001000 *
b11110010 (
1!
#3550200
b10001010 "
#3600000
0!
#3650000
b10000 '
b101001001100000 )
b111100 N
b1111111111001010 Q
b1010 T
b100011 W
b1111111111001111 Z
b11101 ]
b1111111110101110 `
b10 c
b1111111111010101 f
b1101011 i
b1010011 l
b1101 o
b10011 r
b1111111110010110 u
b1111111110011101 x
b1111111111110010 K
b10001010 (
b111010011010010 $
b111010011010010 *
1!
#3650200
b1000001 "
#3700000
0!
#3750000
b10000 '
b11111101001111111001 )
b1111111110001010 K
b1111111110010110 x
b10011 u
b1101 r
b1010011 o
b1101011 l
b1111111111010101 i
b10 f
b1111111110101110 c
b11101 `
b1111111111001111 ]
b100011 Z
b1010 W
b1111111111001010 T
b111100 Q
b1111111111110010 N
b101001001100000 $
b101001001100000 *
b1000001 (
1!
#3750200
b11011000 "
#3800000
0!
#3850000
b10000 '
b1110111101111 )
b1111111110001010 N
b1111111111110010 Q
b111100 T
b1111111111001010 W
b1010 Z
b100011 ]
b1111111111001111 `
b11101 c
b1111111110101110 f
b10 i
b1111111111010101 l
b1101011 o
b1010011 r
b1101 u
b10011 x
b1000001 K
b11011000 (
b11111101001111111001 $
b11111101001111111001 *
1!
#3850200
b1111000 "
#3900000
0!
#3950000
b10000 '
b11111001101110111011 )
b1111111111011000 K
b1101 x
b1010011 u
b1101011 r
b1111111111010101 o
b10 l
b1111111110101110 i
b11101 f
b1111111111001111 c
b100011 `
b1010 ]
b1111111111001010 Z
b111100 W
b1111111111110010 T
b1111111110001010 Q
b1000001 N
b1110111101111 $
b1110111101111 *
b1111000 (
1!
#3950200
b10001001 "
#4000000
0!
#4050000
b10000 '
b11111011111000110000 )
b1111111111011000 N
b1000001 Q
b1111111110001010 T
b1111111111110010 W
b111100 Z
b1111111111001010 ]
b1010 `
b100011 c
b1111111111001111 f
b11101 i
b1111111110101110 l
b10 o
b1111111111010101 r
b1101011 u
b1010011 x
b1111000 K
b10001001 (
b11111001101110111011 $
b11111001101110111011 *
1!
#4050200
b11101011 "
#4100000
0!
#4150000
b10000 '
b11111011111111100100 )
b1111111110001001 K
b1101011 x
b1111111111010101 u
b10 r
b1111111110101110 o
b11101 l
b1111111111001111 i
b100011 f
b1010 c
b1111111111001010 `
b111100 ]
b1111111111110010 Z
b1111111110001010 W
b1000001 T
b1111111111011000 Q
b1111000 N
b11111011111000110000 $
b11111011111000110000 *
b11101011 (
1!
#4150200
b10110110 "
#4200000
0!
#4250000
b10000 '
b1001010101001000 )
b1111111110001001 N
b1111000 Q
b1111111111011000 T
b1000001 W
b1111111110001010 Z
b1111111111110010 ]
b111100 `
b1111111111001010 c
b1010 f
b100011 i
b1111111111001111 l
b11101 o
b1111111110101110 r
b10 u
b1111111111010101 x
b1111111111101011 K
b10110110 (
b11111011111111100100 $
b11111011111111100100 *
1!
#4250200
b11000110 "
#4300000
0!
#4350000
b10000 '
b11111101111000110001 )
b1111111110110110 K
b10 x
b1111111110101110 u
b11101 r
b1111111111001111 o
b100011 l
b1010 i
b1111111111001010 f
b111100 c
b1111111111110010 `
b1111111110001010 ]
b1000001 Z
b1111111111011000 W
b1111000 T
b1111111110001001 Q
b1111111111101011 N
b1001010101001000 $
b1001010101001000 *
b11000110 (
1!
#4350200
b10101110 "
#4400000
0!
#4450000
b10000 '
b10100100010101 )
b1111111110110110 N
b1111111111101011 Q
b1111111110001001 T
b1111000 W
b1111111111011000 Z
b1000001 ]
b1111111110001010 `
b1111111111110010 c
b111100 f
b1111111111001010 i
b1010 l
b100011 o
b1111111111001111 r
b11101 u
b1111111110101110 x
b1111111111000110 K
b10101110 (
b11111101111000110001 $
b11111101111000110001 *
1!
#4450200
b10111100 "
#4500000
0!
#4550000
b10000 '
b11111011011100100101 )
b1111111110101110 K
b11101 x
b1111111111001111 u
b100011 r
b1010 o
b1111111111001010 l
b111100 i
b1111111111110010 f
b1111111110001010 c
b1000001 `
b1111111111011000 ]
b1111000 Z
b1111111110001001 W
b1111111111101011 T
b1111111110110110 Q
b1111111111000110 N
b10100100010101 $
b10100100010101 *
b10111100 (
1!
#4550200
b101010 "
#4600000
0!
#4650000
b10000 '
b110110100011100 )
b1111111110101110 N
b1111111111000110 Q
b1111111110110110 T
b1111111111101011 W
b1111111110001001 Z
b1111000 ]
b1111111111011000 `
b1000001 c
b1111111110001010 f
b1111111111110010 i
b111100 l
b1111111111001010 o
b1010 r
b100011 u
b1111111111001111 x
b1111111110111100 K
b101010 (
b11111011011100100101 $
b11111011011100100101 *
1!
#4650200
b1011 "
#4700000
0!
#4750000
b10000 '
b11111100001010111001 )
b101010 K
b100011 x
b1010 u
b1111111111001010 r
b111100 o
b1111111111110010 l
b1111111110001010 i
b1000001 f
b1111111111011000 c
b1111000 `
b1111111110001001 ]
b1111111111101011 Z
b1111111110110110 W
b1111111111000110 T
b1111111110101110 Q
b1111111110111100 N
b110110100011100 $
b110110100011100 *
b1011 (
1!
#4750200
b1110001 "
#4800000
0!
#4850000
b10000 '
b11111011110110011001 )
b101010 N
b1111111110111100 Q
b1111111110101110 T
b1111111111000110 W
b1111111110110110 Z
b1111111111101011 ]
b1111111110001001 `
b1111000 c
b1111111111011000 f
b1000001 i
b1111111110001010 l
b1111111111110010 o
b111100 r
b1111111111001010 u
b1010 x
b1011 K
b1110001 (
b11111100001010111001 $
b11111100001010111001 *
1!
#4850200
b10000101 "
#4900000
0!
#4950000
b10000 '
b10100110101 )
b1110001 K
b1111111111001010 x
b111100 u
b1111111111110010 r
b1111111110001010 o
b1000001 l
b1111111111011000 i
b1111000 f
b1111111110001001 c
b1111111111101011 `
b1111111110110110 ]
b1111111111000110 Z
b1111111110101110 W
b1111111110111100 T
b101010 Q
b1011 N
b11111011110110011001 $
b11111011110110011001 *
b10000101 (
1!
#4950200
b1001111 "
#5000000
0!
#5050000
b10000 '
b1011110101001 )
b1110001 N
b1011 Q
b101010 T
b1111111110111100 W
b1111111110101110 Z
b1111111111000110 ]
b1111111110110110 `
b1111111111101011 c
b1111111110001001 f
b1111000 i
b1111111111011000 l
b1000001 o
b1111111110001010 r
b1111111111110010 u
b111100 x
b1111111110000101 K
b1001111 (
b10100110101 $
b10100110101 *
1!
#5050200
b111011 "
#5100000
0!
#5150000
b10000 '
b1110011101000 )
b1001111 K
b1111111111110010 x
b1111111110001010 u
b1000001 r
b1111111111011000 o
b1111000 l
b1111111110001001 i
b1111111111101011 f
b1111111110110110 c
b1111111111000110 `
b1111111110101110 ]
b1111111110111100 Z
b101010 W
b1011 T
b1110001 Q
b1111111110000101 N
b1011110101001 $
b1011110101001 *
b111011 (
1!
#5150200
b111010 "
#5200000
0!
#5250000
b10000 '
b11111100110110111100 )
b1001111 N
b1111111110000101 Q
b1110001 T
b1011 W
b101010 Z
b1111111110111100 ]
b1111111110101110 `
b1111111111000110 c
b1111111110110110 f
b1111111111101011 i
b1111111110001001 l
b1111000 o
b1111111111011000 r
b1000001 u
b1111111110001010 x
b111011 K
b111010 (
b1110011101000 $
b1110011101000 *
1!
#5250200
b1111110 "
#5300000
0!
#5350000
b10000 '
b11110110010100100001 )
b111010 K
b1000001 x
b1111111111011000 u
b1111000 r
b1111111110001001 o
b1111111111101011 l
b1111111110110110 i
b1111111111000110 f
b1111111110101110 c
b1111111110111100 `
b101010 ]
b1011 Z
b1110001 W
b1111111110000101 T
b1001111 Q
b111011 N
b11111100110110111100 $
b11111100110110111100 *
b1111110 (
1!
#5350200
b10101 "
#5400000
0!
#5450000
b10000 '
b11111111000001010010 )
b111010 N
b111011 Q
b1001111 T
b1111111110000101 W
b1110001 Z
b1011 ]
b101010 `
b1111111110111100 c
b1111111110101110 f
b1111111111000110 i
b1111111110110110 l
b1111111111101011 o
b1111111110001001 r
b1111000 u
b1111111111011000 x
b1111110 K
b10101 (
b11110110010100100001 $
b11110110010100100001 *
1!
#5450200
b11110001 "
#5500000
0!
#5550000
b10000 '
b11000010111 )
b10101 K
b1111000 x
b1111111110001001 u
b1111111111101011 r
b1111111110110110 o
b1111111111000110 l
b1111111110101110 i
b1111111110111100 f
b101010 c
b1011 `
b1110001 ]
b1111111110000101 Z
b1001111 W
b111011 T
b111010 Q
b1111110 N
b11111111000001010010 $
b11111111000001010010 *
b11110001 (
1!
#5550200
b11011001 "
#5600000
0!
#5650000
b10000 '
b11111101010111101100 )
b10101 N
b1111110 Q
b111010 T
b111011 W
b1001111 Z
b1111111110000101 ]
b1110001 `
b1011 c
b101010 f
b1111111110111100 i
b1111111110101110 l
b1111111111000110 o
b1111111110110110 r
b1111111111101011 u
b1111111110001001 x
b1111111111110001 K
b11011001 (
b11000010111 $
b11000010111 *
1!
#5650200
b1100010 "
#5700000
0!
#5750000
b10000 '
b101110110110000 )
b1111111111011001 K
b1111111111101011 x
b1111111110110110 u
b1111111111000110 r
b1111111110101110 o
b1111111110111100 l
b101010 i
b1011 f
b1110001 c
b1111111110000101 `
b1001111 ]
b111011 Z
b111010 W
b1111110 T
b10101 Q
b1111111111110001 N
b11111101010111101100 $
b11111101010111101100 *
b1100010 (
1!
#5750200
b1001100 "
#5800000
0!
#5850000
b10000 '
b1000001011001010 )
b1111111111011001 N
b1111111111110001 Q
b10101 T
b1111110 W
b111010 Z
b111011 ]
b1001111 `
b1111111110000101 c
b1110001 f
b1011 i
b101010 l
b1111111110111100 o
b1111111110101110 r
b1111111111000110 u
b1111111110110110 x
b1100010 K
b1001100 (
b101110110110000 $
b101110110110000 *
1!
#5850200
b10011111 "
#5900000
0!
#5950000
b10000 '
b1001000111110 )
b1001100 K
b1111111111000110 x
b1111111110101110 u
b1111111110111100 r
b101010 o
b1011 l
b1110001 i
b1111111110000101 f
b1001111 c
b111011 `
b111010 ]
b1111110 Z
b10101 W
b1111111111110001 T
b1111111111011001 Q
b1100010 N
b1000001011001010 $
b1000001011001010 *
b10011111 (
1!
#5950200
b10001111 "
#6000000
0!
#6050000
b10000 '
b11111101001110101101 )
b1001100 N
b1100010 Q
b1111111111011001 T
b1111111111110001 W
b10101 Z
b1111110 ]
b111010 `
b111011 c
b1001111 f
b1111111110000101 i
b1110001 l
b1011 o
b101010 r
b1111111110111100 u
b1111111110101110 x
b1111111110011111 K
b10001111 (
b1001000111110 $
b1001000111110 *
1!
#6050200
b11111000 "
#6100000
0!
#6150000
b10000 '
b110100111101011 )
b1111111110001111 K
b1111111110111100 x
b101010 u
b1011 r
b1110001 o
b1111111110000101 l
b1001111 i
b111011 f
b111010 c
b1111110 `
b10101 ]
b1111111111110001 Z
b1111111111011001 W
b1100010 T
b1001100 Q
b1111111110011111 N
b11111101001110101101 $
b11111101001110101101 *
b11111000 (
1!
#6150200
b10110111 "
#6200000
0!
#6250000
b10000 '
b110000010001001 )
b1111111110001111 N
b1111111110011111 Q
b1001100 T
b1100010 W
b1111111111011001 Z
b1111111111110001 ]
b10101 `
b1111110 c
b111010 f
b111011 i
b1001111 l
b1111111110000101 o
b1110001 r
b1011 u
b101010 x
b1111111111111000 K
b10110111 (
b110100111101011 $
b110100111101011 *
1!
#6250200
b10011111 "
#6300000
0!
#6350000
b10000 '
b11111111001100101101 )
b1111111110110111 K
b1011 x
b1110001 u
b1111111110000101 r
b1001111 o
b111011 l
b111010 i
b1111110 f
b10101 c
b1111111111110001 `
b1111111111011001 ]
b1100010 Z
b1001100 W
b1111111110011111 T
b1111111110001111 Q
b1111111111111000 N
b110000010001001 $
b110000010001001 *
b10011111 (
1!
#6350200
b1011100 "
#6400000
0!
#6450000
b10000 '
b11111111000111110001 )
b1111111110110111 N
b1111111111111000 Q
b1111111110001111 T
b1111111110011111 W
b1001100 Z
b1100010 ]
b1111111111011001 `
b1111111111110001 c
b10101 f
b1111110 i
b111010 l
b111011 o
b1001111 r
b1111111110000101 u
b1110001 x
b1111111110011111 K
b1011100 (
b11111111001100101101 $
b11111111001100101101 *
1!
#6450200
b1011011 "
#6500000
0!
