apps/waveform/test_data/dump.vcd
$date
	Wed Dec 18 23:05:39 2024
$end
$version
	Icarus Verilog
$end
$timescale
	10ps
$end
$scope module tb $end
$scope module DUT $end
$var wire 1 ! a $end
$var wire 1 " b $end
$var wire 1 # ci $end
$var wire 1 $ co $end
$var wire 1 % so $end
$upscope $end
$upscope $end
$enddefinitions $end
$comment Show the parameter values. $end
$dumpall
$end
#0
$dumpvars
0%
0$
0#
0"
0!
$end
#100
1%
1#
#200
0#
1"
#300
1$
0%
1#
#400
0$
1%
0#
0"
1!
#500
1$
0%
1#
#600
0#
1"
#700
1%
1#
#900
$dumpoff
x%
x$
x#
x"
x!
$end
