apps/waveform/test_data/filtered_post_syn_dump.vcd
$date
	Thu Feb  6 10:17:02 2025
$end
$version
	Icarus Verilog
$end
$timescale
	10ps
$end
$scope module tb $end
$scope module DUT $end
$var wire 1 ! a $end
$var wire 1 " b $end
$var wire 1 # ci $end
$var wire 1 $ so $end
$var wire 1 % co $end
$var wire 1 & _04_ $end
$var wire 1 ' _03_ $end
$var wire 1 ( _02_ $end
$var wire 1 ) _01_ $end
$var wire 1 * _00_ $end
$scope module _05_ $end
$var wire 1 ! A $end
$var wire 1 + Y $end
$var real 1 , \tphlh$A$Y $end
$var real 1 - \tplhl$A$Y $end
$upscope $end
$scope module _06_ $end
$var wire 1 " A $end
$var wire 1 # B $end
$var wire 1 . Y $end
$var real 1 / \tphhl$A$Y $end
$var real 1 0 \tphhl$B$Y $end
$var real 1 1 \tpllh$A$Y $end
$var real 1 2 \tpllh$B$Y $end
$upscope $end
$scope module _07_ $end
$var wire 1 " A $end
$var wire 1 # B $end
$var wire 1 3 I0_out $end
$var wire 1 4 Y $end
$var real 1 5 \tphlh$A$Y $end
$var real 1 6 \tphlh$B$Y $end
$var real 1 7 \tplhl$A$Y $end
$var real 1 8 \tplhl$B$Y $end
$upscope $end
$scope module _08_ $end
$var wire 1 " A $end
$var wire 1 # B $end
$var wire 1 ! C $end
$var wire 1 9 I0_out $end
$var wire 1 : I1_out $end
$var wire 1 ; Y $end
$var real 1 < \tphlh$A$Y $end
$var real 1 = \tphlh$B$Y $end
$var real 1 > \tphlh$C$Y $end
$var real 1 ? \tplhl$A$Y $end
$var real 1 @ \tplhl$B$Y $end
$var real 1 A \tplhl$C$Y $end
$upscope $end
$scope module _09_ $end
$var wire 1 ' A $end
$var wire 1 & B $end
$var wire 1 B I0_out $end
$var wire 1 C Y $end
$var real 1 D \tphlh$A$Y $end
$var real 1 E \tphlh$B$Y $end
$var real 1 F \tplhl$A$Y $end
$var real 1 G \tplhl$B$Y $end
$upscope $end
$scope module _10_ $end
$var wire 1 ! A $end
$var wire 1 ( B $end
$var wire 1 H I0_out $end
$var wire 1 I Y $end
$var real 1 J \tphlh$A$Y $end
$var real 1 K \tphlh$B$Y $end
$var real 1 L \tplhl$A$Y $end
$var real 1 M \tplhl$B$Y $end
$upscope $end
$scope module _11_ $end
$var wire 1 ) A $end
$var wire 1 ' B $end
$var wire 1 % C $end
$var wire 1 * D $end
$var wire 1 N I0_out $end
$var wire 1 O I1_out $end
$var wire 1 P I2_out $end
$var wire 1 Q Y $end
$var real 1 R \tphlh$A$Y $end
$var real 1 S \tphlh$B$Y $end
$var real 1 T \tphlh$C$Y $end
$var real 1 U \tphlh$D$Y $end
$var real 1 V \tplhl$A$Y $end
$var real 1 W \tplhl$B$Y $end
$var real 1 X \tplhl$C$Y $end
$var real 1 Y \tplhl$D$Y $end
$upscope $end
$upscope $end
$upscope $end
$enddefinitions $end
$comment Show the parameter values. $end
$dumpall
$end
#0
$dumpvars
xQ
xP
xO
xN
xI
xH
xC
xB
x;
0:
09
x4
03
x.
x+
x*
x)
x(
x'
x&
x%
x$
0#
0"
0!
$end
#4
1N
1)
1+
#5
1B
1&
1;
1'
14
#8
0H
0%
0C
0(
0.
#12
1P
1O
1*
1I
#17
0$
0Q
#100
19
1#
#109
1H
1(
1.
#113
0P
0O
0*
0I
#119
1$
1Q
#200
0#
1"
#300
13
1#
#303
0B
0'
04
#308
1P
1O
1%
1C
#313
0$
0Q
#400
03
09
0:
0#
0"
1!
#403
0P
0N
0)
0+
#405
1P
1B
1N
1'
14
#408
0P
0O
0%
0C
0(
0.
#410
1$
1Q
#500
1:
19
1#
#504
0B
0&
0;
#509
1P
1O
1%
1C
1(
1.
#514
0$
0Q
#600
0#
1"
#700
13
1#
#703
0P
0N
0'
04
#710
1$
1Q
#900
$dumpoff
xQ
xP
xO
xN
xI
xH
xC
xB
x;
x:
x9
x4
x3
x.
x+
x*
x)
x(
x'
x&
x%
x$
x#
x"
x!
$end
